Creating drake plans for species
…
# Let's take a look
dorsalis

## # A tibble: 62 x 2
##    target             command                                                   
##    <chr>              <expr_lst>                                                
##  1 download_worldclim download_worldclim2(outfile = drake::file_out("downloads/…
##  2 extract_worldclim  extract_worldclim2(path_2_zip = drake::file_in("downloads…
##  3 output_resolution  list(c(1000, 1000))                                      …
##  4 output_resolution… list(c(5000, 5000))                                      …
##  5 output_extent      list(c(-1888000, 2122000, -4847000, -1010000))           …
##  6 compress_clum      rle_compress(x = drake::file_in("risk_layers/biotic/raw_d…
##  7 compress_nvis      rle_compress(x = drake::file_in("risk_layers/biotic/raw_d…
##  8 aus_mask_clum      na_mask(infile = drake::file_in("risk_layers/biotic/raw_d…
##  9 make_template_flo… initialise_raster(drake::file_in("risk_layers/biotic/raw_…
## 10 template_float32   drake::file_in("risk_layers/auxiliary/clum_template_Float…
## # … with 52 more rows
…
